{
    "hnge": {
        "name": "Heinz-Nixdorf-Gesamtschule",
        "location": {
            "lat": "51.7338836",
            "long": "8.7723079"
        },
        "services": [
            "lspb"
        ]
    }
}